mc15_13TeV:mc15_13TeV.410000.PowhegPythiaEvtGen_P2012_ttbar_hdamp172p5_nonallhad.merge.DAOD_STDM4.e3698_s2608_s2183_r7267_r6282_p2419/
mc15_13TeV:mc15_13TeV.410000.PowhegPythiaEvtGen_P2012_ttbar_hdamp172p5_nonallhad.merge.DAOD_STDM4.e3698_s2608_s2183_r6765_r6282_p2419/
mc15_13TeV:mc15_13TeV.361108.PowhegPythia8EvtGen_AZNLOCTEQ6L1_Ztautau.merge.DAOD_STDM4.e3601_s2576_s2132_r7267_r6282_p2419/
mc15_13TeV:mc15_13TeV.361108.PowhegPythia8EvtGen_AZNLOCTEQ6L1_Ztautau.merge.DAOD_STDM4.e3601_s2576_s2132_r6765_r6282_p2419/
mc15_13TeV:mc15_13TeV.361105.PowhegPythia8EvtGen_AZNLOCTEQ6L1_Wminustaunu.merge.DAOD_STDM4.e3601_s2576_s2132_r6725_r6282_p2419/
mc15_13TeV:mc15_13TeV.361104.PowhegPythia8EvtGen_AZNLOCTEQ6L1_Wminusmunu.merge.DAOD_STDM4.e3601_s2576_s2132_r6725_r6282_p2421/
mc15_13TeV:mc15_13TeV.361104.PowhegPythia8EvtGen_AZNLOCTEQ6L1_Wminusmunu.merge.DAOD_STDM4.e3601_s2576_s2132_r7267_r6282_p2421/
mc15_13TeV:mc15_13TeV.361103.PowhegPythia8EvtGen_AZNLOCTEQ6L1_Wminusenu.merge.DAOD_STDM4.e3601_s2576_s2132_r6765_r6282_p2421/
mc15_13TeV:mc15_13TeV.361102.PowhegPythia8EvtGen_AZNLOCTEQ6L1_Wplustaunu.merge.DAOD_STDM4.e3601_s2576_s2132_r6725_r6282_p2419/
mc15_13TeV:mc15_13TeV.361101.PowhegPythia8EvtGen_AZNLOCTEQ6L1_Wplusmunu.merge.DAOD_STDM4.e3601_s2576_s2132_r7267_r6282_p2421/
mc15_13TeV:mc15_13TeV.361101.PowhegPythia8EvtGen_AZNLOCTEQ6L1_Wplusmunu.merge.DAOD_STDM4.e3601_s2576_s2132_r6725_r6282_p2421/
mc15_13TeV:mc15_13TeV.361100.PowhegPythia8EvtGen_AZNLOCTEQ6L1_Wplusenu.merge.DAOD_STDM4.e3601_s2576_s2132_r6765_r6282_p2421/
mc15_13TeV:mc15_13TeV.361106.PowhegPythia8EvtGen_AZNLOCTEQ6L1_Zee.merge.DAOD_STDM3.e3601_s2576_s2132_r7267_r6282_p2421/
mc15_13TeV:mc15_13TeV.361106.PowhegPythia8EvtGen_AZNLOCTEQ6L1_Zee.merge.DAOD_STDM3.e3601_s2576_s2132_r6765_r6282_p2419/
mc15_13TeV:mc15_13TeV.361107.PowhegPythia8EvtGen_AZNLOCTEQ6L1_Zmumu.merge.DAOD_STDM3.e3601_s2576_s2132_r6765_r6282_p2419/
mc15_13TeV:mc15_13TeV.361107.PowhegPythia8EvtGen_AZNLOCTEQ6L1_Zmumu.merge.DAOD_STDM3.e3601_s2576_s2132_r7267_r6282_p2421/
